corrrパッケージで相関行列を操作・可視化
…
shave(x, upper = TRUE)

xはcorrelate()で作成された相関行列(cor_dfクラス)を指定します。

upper=は上側三角をNAにするかどうかを論理値で指定します。デフォルトはTRUEで、上の例のように上側三角がNAとなります。

おそらく説明は不要かと思います。

stretch()

correlate()で作成した相関行列(cor_dfクラス)について、Long型のデータ構造へ変換します:

stretch(x)

## # A tibble: 36 × 3
##        x     y           r
##    <chr> <chr>       <dbl>
## 1     v1    v1          NA
## 2     v1    v2  0.70533312
## 3     v1    v3  0.69675163
## 4     v1    v4 -0.01939163
## 5     v1    v5 -0.04015482
## 6     v1    v6 -0.01903664
## 7     v2    v1  0.70533312
## 8     v2    v2          NA
## 9     v2    v3  0.71602751
## 10    v2    v4 -0.01963545
## # ... with 26 more rows
…
