{forcats}パッケージでカテゴリカル変数(factor型データ)をいじってみる
…
関数のリファレンスは，公式サイトのこちらに一覧と説明があります。

使用するデータ

簡単なものについては，その場でさくっと作ります。

大きめのデータでやりたいときは，forcatsパッケージに内包されているgss_catデータを使ってます。データの内容については?gss_catで表示されるヘルプを確認してください。

gss_cat
#> # A tibble: 21,483 × 9
#>     year       marital   age   race        rincome            partyid
#>    <int>        <fctr> <int> <fctr>         <fctr>             <fctr>
#> 1   2000 Never married    26  White  $8000 to 9999       Ind,near rep
#> 2   2000      Divorced    48  White  $8000 to 9999 Not str republican
#> 3   2000       Widowed    67  White Not applicable        Independent
#> 4   2000 Never married    39  White Not applicable       Ind,near rep
#> 5   2000      Divorced    25  White Not applicable   Not str democrat
#> 6   2000       Married    25  White $20000 - 24999    Strong democrat
#> 7   2000 Never married    36  White $25000 or more Not str republican
#> 8   2000      Divorced    44  White  $7000 to 7999       Ind,near dem
#> 9   2000       Married    44  White $25000 or more   Not str democrat
#> 10  2000       Married    47  White $25000 or more  Strong republican
#> # ... with 21,473 more rows, and 3 more variables: relig <fctr>,
#> #   denom <fctr>, tvhours <int>
…
説明と具体例

タイトルのとおりですが，返り値がtibbleclassなのが特徴です。tableと違い，tidyverseな他の関数との相性がよく，使いやすいでしょう。

f <- factor(sample(letters)[rpois(1000, 10)])
table(f)
#> f
#>   a   b   d   e   f   g   h   i   j   k   l   m   n   o   q   s   u   v 
#>  33   1  82 130  37  14  51  10  46  12  79   1  43   7   8  90   1 112 
#>   w   x   y   z 
#>   4 108 129   2
fct_count(f)
#> # A tibble: 22 × 2
#>         f     n
#>    <fctr> <int>
#> 1       a    33
#> 2       b     1
#> 3       d    82
#> 4       e   130
#> 5       f    37
#> 6       g    14
#> 7       h    51
#> 8       i    10
#> 9       j    46
#> 10      k    12
#> # ... with 12 more rows
fct_count(f, sort = TRUE)
#> # A tibble: 22 × 2
#>         f     n
#>    <fctr> <int>
#> 1       e   130
#> 2       y   129
#> 3       v   112
#> 4       x   108
#> 5       s    90
#> 6       d    82
#> 7       l    79
#> 8       h    51
#> 9       j    46
#> 10      n    43
#> # ... with 12 more rows
…
